<svg id="virppLogo" xmlns="http://www.w3.org/2000/svg" width="119.011" height="28" viewBox="0 0 119.011 28">
  <path id="Path_58" data-name="Path 58" d="M120.765,121.07c-.262,1.379-.516,2.724-.772,4.068q-.593,3.12-1.187,6.239-.768,4.036-1.538,8.071-.746,3.916-1.489,7.833c-.1.538-.21,1.075-.306,1.615-.021.119-.065.173-.185.162-.051,0-.1,0-.156,0H86.92c.04-.231.073-.437.112-.642q1.02-5.367,2.042-10.733.948-4.973,1.9-9.947.613-3.218,1.217-6.437c.034-.179.1-.265.289-.231a1.583,1.583,0,0,0,.267,0h28.022Zm-11.23,15.6c.035-.046.081-.1.122-.159.307-.437.609-.877.921-1.311.115-.16.232-.3.065-.5a.4.4,0,0,1-.047-.236c0-1.513,0-3.025-.006-4.538a.588.588,0,0,0-.113-.355,8.334,8.334,0,0,0-8.182-3.037,8.567,8.567,0,0,0,2.935,16.881,8.376,8.376,0,0,0,6.663-5.579,7.733,7.733,0,0,0,.489-2.586c0-.063-.05-.178-.091-.184a.4.4,0,0,0-.463.154c-.436.653-.9,1.292-1.345,1.936a1.683,1.683,0,0,0-.084.148c.035.031.055.052.078.069.416.321.454.555.158.976l-1.429,2.04c-.286.409-.551.46-.955.181-.354-.244-.706-.493-1.059-.738-.414-.289-.46-.553-.166-.973.446-.638.907-1.266,1.334-1.917.355-.542.677-.619,1.127-.272C109.493,136.67,109.5,136.666,109.535,136.666Z" transform="translate(-86.92 -121.058)" fill="#f71454"/>
  <path id="Path_59" data-name="Path 59" d="M876.14,177.405h.246q4.743,0,9.486,0a6.858,6.858,0,0,1,3.1.66,5.075,5.075,0,0,1,2.852,3.922,7.615,7.615,0,0,1-2.048,6.424,7.743,7.743,0,0,1-3.321,2.237c-.042.015-.083.032-.124.049a.376.376,0,0,0-.056.044l3.126,6.881c-.1,0-.173.01-.243.01-1.655,0-3.31,0-4.966.006a.308.308,0,0,1-.327-.214c-.96-2.011-1.929-4.018-2.889-6.03a.327.327,0,0,0-.352-.218c-.63.012-1.261.009-1.893,0-.15,0-.2.048-.226.2q-.528,3.04-1.069,6.078c-.01.057-.031.112-.049.173H872.57Q874.357,187.513,876.14,177.405Zm3.178,9.415c.073.007.131.017.188.017,1.625,0,3.25.008,4.875-.009a4.291,4.291,0,0,0,1.051-.158,2.98,2.98,0,0,0,2.091-3.034,1.88,1.88,0,0,0-1.582-1.8,3.8,3.8,0,0,0-.749-.08c-1.587-.008-3.175,0-4.763,0-.065,0-.131.006-.215.01C879.914,183.444,879.617,185.125,879.318,186.82Z" transform="translate(-810.591 -172.963)" fill="#f71454"/>
  <path id="Path_60" data-name="Path 60" d="M1354.482,197.612h-4.832q1.786-10.113,3.57-20.224h.228q4.788,0,9.576,0a6.908,6.908,0,0,1,2.819.545,5.1,5.1,0,0,1,3.113,4.119,7.573,7.573,0,0,1-2.073,6.353,7.936,7.936,0,0,1-5.2,2.675,12.965,12.965,0,0,1-1.443.082c-1.455.01-2.91.006-4.365,0-.177,0-.252.032-.286.229-.346,2.021-.707,4.04-1.064,6.059A1.342,1.342,0,0,1,1354.482,197.612Zm1.919-10.791h.274c1.47,0,2.939,0,4.409,0a8.361,8.361,0,0,0,.888-.047,2.928,2.928,0,0,0,2.655-2.839,1.9,1.9,0,0,0-1.481-2.092,3.894,3.894,0,0,0-.881-.1c-1.588-.01-3.177-.006-4.766,0-.065,0-.13.007-.2.011C1357,183.434,1356.7,185.109,1356.4,186.821Z" transform="translate(-1250.034 -172.948)" fill="#f71454"/>
  <path id="Path_61" data-name="Path 61" d="M1116.795,191.157c-.38,2.153-.759,4.293-1.139,6.442h-4.845q1.785-10.108,3.569-20.221h.227q4.788,0,9.576,0a7.012,7.012,0,0,1,2.655.478,5.094,5.094,0,0,1,3.278,4.185,7.563,7.563,0,0,1-2.072,6.353,7.933,7.933,0,0,1-5.2,2.675,12.965,12.965,0,0,1-1.443.082c-1.44.01-2.88,0-4.32,0C1116.994,191.157,1116.906,191.157,1116.795,191.157Zm.766-4.345h.3c1.455,0,2.909,0,4.365,0,.289,0,.578-.016.866-.043a2.926,2.926,0,0,0,2.695-2.8,1.909,1.909,0,0,0-1.461-2.128,3.8,3.8,0,0,0-.88-.108c-1.6-.01-3.192-.006-4.788-.006-.065,0-.129.008-.2.013C1118.159,183.428,1117.863,185.1,1117.561,186.812Z" transform="translate(-1030.036 -172.939)" fill="#f71454"/>
  <path id="Path_62" data-name="Path 62" d="M544.75,177.405h.271c1.685,0,3.37,0,5.055-.006a.3.3,0,0,1,.339.249q1.661,4.8,3.337,9.6c.026.075.057.149.1.267.073-.1.126-.164.174-.232q3.373-4.834,6.742-9.67a.441.441,0,0,1,.417-.214c1.751.008,3.5,0,5.312,0l-14.445,20.227Z" transform="translate(-508.632 -172.96)" fill="#f71454"/>
  <path id="Path_63" data-name="Path 63" d="M798.18,197.618h-4.83c.053-.317.1-.62.155-.923q.6-3.376,1.193-6.751.615-3.474,1.231-6.948.477-2.7.947-5.4c.021-.122.046-.2.2-.2,1.529.006,3.058,0,4.587,0a.6.6,0,0,1,.082.019Q799.965,187.509,798.18,197.618Z" transform="translate(-737.62 -172.96)" fill="#f71454"/>
  <path id="Path_64" data-name="Path 64" d="M272.109,269.172a2.734,2.734,0,1,1-2.726-2.722A2.726,2.726,0,0,1,272.109,269.172Z" transform="translate(-252.462 -254.992)" fill="#f71454"/>
  <path id="Path_65" data-name="Path 65" d="M212.64,214.381a1.159,1.159,0,0,1,.065-.266,11.437,11.437,0,0,1,2.255-3.255,10.688,10.688,0,0,1,2.535-1.673.773.773,0,0,1,.84.081c.208.152.191.3-.038.419-.551.291-1.112.563-1.652.872a6.523,6.523,0,0,0-2.435,2.479c-.32.56-.613,1.134-.931,1.7-.058.1-.207.262-.256.244a.729.729,0,0,1-.3-.284A1.019,1.019,0,0,1,212.64,214.381Z" transform="translate(-202.722 -202.161)" fill="#f71454"/>
  <path id="Path_66" data-name="Path 66" d="M234.6,234.847a1.569,1.569,0,0,1,.071-.217,6.674,6.674,0,0,1,3.238-3.351.625.625,0,0,1,.632-.024.308.308,0,0,1,.138.182c.006.043-.079.115-.138.147-.422.232-.858.441-1.27.688a4.853,4.853,0,0,0-1.757,1.965c-.153.288-.3.578-.464.861a1.063,1.063,0,0,1-.189.192,1.918,1.918,0,0,1-.215-.232A.6.6,0,0,1,234.6,234.847Z" transform="translate(-222.95 -222.501)" fill="#f71454"/>
  <path id="Path_67" data-name="Path 67" d="M254.681,253.366a.3.3,0,0,1-.13-.423,4.038,4.038,0,0,1,2.014-2.076.582.582,0,0,1,.278-.038c.055,0,.106.067.159.1-.039.047-.069.115-.12.135a3.769,3.769,0,0,0-2.075,2.091A2.163,2.163,0,0,1,254.681,253.366Z" transform="translate(-241.289 -240.6)" fill="#f71454"/>
  <path id="Path_68" data-name="Path 68" d="M344.636,366.12c-.048.219-.109.35-.288.359a.216.216,0,0,1-.241-.227c-.009-.146.159-.32.293-.288A.805.805,0,0,1,344.636,366.12Z" transform="translate(-323.817 -346.66)" fill="#f71454"/>
</svg>
